[
  {
    "description": "    tests:\n    1. B2B/B2C products must be published\n    2. B2B/B2C products must not be published\n    3. B2B/B2C products series name are wrong",
    "elements": [
      {
        "description": "",
        "id": "benq-global-launch;[b2c]-sw321c",
        "keyword": "Scenario",
        "line": 7,
        "name": "[B2C] SW321C",
        "steps": [
          {
            "keyword": "Before",
            "hidden": true,
            "result": {
              "status": "passed",
              "duration": 3474378599
            }
          },
          {
            "arguments": [],
            "keyword": "Given ",
            "line": 8,
            "name": "SW321C must not be published on 'en-us' before 20211231",
            "match": {
              "location": "features\\support\\steps.js:95"
            },
            "result": {
              "status": "passed",
              "duration": 2348354699
            }
          },
          {
            "arguments": [],
            "keyword": "Given ",
            "line": 9,
            "name": "SW321C must be published on 'en-us' after 20220101",
            "match": {
              "location": "features\\support\\steps.js:147"
            },
            "result": {
              "status": "passed",
              "duration": 2612142399
            }
          },
          {
            "arguments": [],
            "keyword": "Then ",
            "line": 10,
            "name": "SW321C series name must be photographer",
            "match": {
              "location": "features\\support\\steps.js:199"
            },
            "result": {
              "status": "passed",
              "duration": 2791769299
            }
          },
          {
            "keyword": "After",
            "hidden": true,
            "result": {
              "status": "passed",
              "duration": 470667400
            }
          }
        ],
        "tags": [],
        "type": "scenario"
      }
    ],
    "id": "benq-global-launch",
    "line": 1,
    "keyword": "Feature",
    "name": "BenQ Global Launch",
    "tags": [],
    "uri": "features\\test.feature"
  }
]